{
    "name": "sac-frontend",
    "version": "0.0.0",
    "engines": {
      "node": "v12.18.3",
      "npm": "6.14.6"
    },
    "scripts": {
      "ng": "ng",
      "start": "node server.js",
      "build": "ng build",
      "test": "ng test",
      "lint": "ng lint",
      "e2e": "ng e2e",
      "postinstall": "ng build --output-path angularapp  --aot --prod"
    },
    "private": true,
    "dependencies": {
      "@angular/animations": "~10.0.2",
      "@angular/common": "~10.0.2",
      "@angular/compiler": "~10.0.2",
      "@angular/core": "~10.0.2",
      "@angular/forms": "~10.0.2",
      "@angular/localize": "~10.0.2",
      "@angular/platform-browser": "~10.0.2",
      "@angular/platform-browser-dynamic": "~10.0.2",
      "@angular/router": "~10.0.2",
      "@auth0/angular-jwt": "^5.0.1",
      "@ng-bootstrap/ng-bootstrap": "^7.0.0",
      "bootstrap": "^4.5.0",
      "express": "^4.17.1",
      "font-awesome": "^4.7.0",
      "path": "^0.12.7",
      "rxjs": "~6.5.5",
      "tslib": "^2.0.0",
      "zone.js": "~0.10.3"
    },
    "devDependencies": {
      "@angular-devkit/build-angular": "~0.1000.1",
      "@angular/cli": "^10.0.6",
      "@angular/compiler-cli": "^10.0.10",
      "@types/jasmine": "~3.5.0",
      "@types/jasminewd2": "~2.0.3",
      "@types/node": "^12.11.1",
      "codelyzer": "^6.0.0-next.1",
      "jasmine-core": "~3.5.0",
      "jasmine-spec-reporter": "~5.0.0",
      "karma": "~5.0.0",
      "karma-chrome-launcher": "~3.1.0",
      "karma-coverage-istanbul-reporter": "~3.0.2",
      "karma-jasmine": "~3.3.0",
      "karma-jasmine-html-reporter": "^1.5.0",
      "protractor": "~7.0.0",
      "ts-node": "~8.3.0",
      "tslint": "~6.1.0",
      "typescript": "~3.9.5"
    }
  }
  